StartFontMetrics 4.1
FontName GothamPro-Medium
FullName Gotham Pro Medium Regular
Notice Copyright [c] 2000 The Hoefler Type Foundry, Inc., dba Hoefler & Frere-Jones. All Rights Reserved.
EncodingScheme FontSpecific
FamilyName Gotham Pro Medium
Weight Regular
Version Version 001.000
Characters 211
ItalicAngle 0.0
Ascender 922
Descender -185
UnderlineThickness 20
UnderlinePosition -123
IsFixedPitch false
FontBBox -25 -165 1094 922
StartCharMetrics 256
C 0 ; WX 1000 ; N .null ; B 80 0 222 700 ;
C 1 ; WX 365 ; N .notdef ; B 33 0 299 667 ;
C 2 ; WX 365 ; N .notdef ; B 33 0 299 667 ;
C 3 ; WX 365 ; N .notdef ; B 33 0 299 667 ;
C 4 ; WX 365 ; N .notdef ; B 33 0 299 667 ;
C 5 ; WX 365 ; N .notdef ; B 33 0 299 667 ;
C 6 ; WX 365 ; N .notdef ; B 33 0 299 667 ;
C 7 ; WX 365 ; N .notdef ; B 33 0 299 667 ;
C 8 ; WX 365 ; N .notdef ; B 33 0 299 667 ;
C 9 ; WX 365 ; N .notdef ; B 33 0 299 667 ;
C 10 ; WX 365 ; N .notdef ; B 33 0 299 667 ;
C 11 ; WX 365 ; N .notdef ; B 33 0 299 667 ;
C 12 ; WX 365 ; N .notdef ; B 33 0 299 667 ;
C 13 ; WX 1000 ; N uni000D ; B 80 0 222 700 ;
C 14 ; WX 365 ; N .notdef ; B 33 0 299 667 ;
C 15 ; WX 365 ; N .notdef ; B 33 0 299 667 ;
C 16 ; WX 365 ; N .notdef ; B 33 0 299 667 ;
C 17 ; WX 365 ; N .notdef ; B 33 0 299 667 ;
C 18 ; WX 365 ; N .notdef ; B 33 0 299 667 ;
C 19 ; WX 365 ; N .notdef ; B 33 0 299 667 ;
C 20 ; WX 365 ; N .notdef ; B 33 0 299 667 ;
C 21 ; WX 365 ; N .notdef ; B 33 0 299 667 ;
C 22 ; WX 365 ; N .notdef ; B 33 0 299 667 ;
C 23 ; WX 365 ; N .notdef ; B 33 0 299 667 ;
C 24 ; WX 365 ; N .notdef ; B 33 0 299 667 ;
C 25 ; WX 365 ; N .notdef ; B 33 0 299 667 ;
C 26 ; WX 365 ; N .notdef ; B 33 0 299 667 ;
C 27 ; WX 365 ; N .notdef ; B 33 0 299 667 ;
C 28 ; WX 365 ; N .notdef ; B 33 0 299 667 ;
C 29 ; WX 365 ; N .notdef ; B 33 0 299 667 ;
C 30 ; WX 365 ; N .notdef ; B 33 0 299 667 ;
C 31 ; WX 365 ; N .notdef ; B 33 0 299 667 ;
C 32 ; WX 300 ; N space ; B 80 0 222 700 ;
C 33 ; WX 302 ; N exclam ; B 80 0 222 700 ;
C 34 ; WX 487 ; N quotedbl ; B 60 401 440 700 ;
C 35 ; WX 700 ; N numbersign ; B 39 0 660 700 ;
C 36 ; WX 642 ; N dollar ; B 49 -98 585 758 ;
C 37 ; WX 849 ; N percent ; B 48 -8 801 708 ;
C 38 ; WX 696 ; N ampersand ; B 39 -14 666 712 ;
C 39 ; WX 269 ; N quotesingle ; B 60 401 222 700 ;
C 40 ; WX 440 ; N parenleft ; B 63 -141 393 715 ;
C 41 ; WX 440 ; N parenright ; B 48 -141 378 715 ;
C 42 ; WX 430 ; N asterisk ; B 58 382 372 702 ;
C 43 ; WX 640 ; N plus ; B 71 106 569 598 ;
C 44 ; WX 269 ; N comma ; B 34 -145 201 137 ;
C 45 ; WX 408 ; N hyphen ; B 56 247 352 366 ;
C 46 ; WX 269 ; N period ; B 68 0 201 137 ;
C 47 ; WX 521 ; N slash ; B -25 -128 532 798 ;
C 48 ; WX 724 ; N zero ; B 57 -12 667 712 ;
C 49 ; WX 396 ; N one ; B 26 0 300 705 ;
C 50 ; WX 613 ; N two ; B 49 0 555 710 ;
C 51 ; WX 618 ; N three ; B 43 -12 556 700 ;
C 52 ; WX 681 ; N four ; B 36 0 630 705 ;
C 53 ; WX 622 ; N five ; B 47 -12 563 700 ;
C 54 ; WX 656 ; N six ; B 57 -12 597 712 ;
C 55 ; WX 609 ; N seven ; B 68 0 560 700 ;
C 56 ; WX 630 ; N eight ; B 48 -10 582 710 ;
C 57 ; WX 656 ; N nine ; B 59 -12 599 712 ;
C 58 ; WX 279 ; N colon ; B 73 0 206 528 ;
C 59 ; WX 279 ; N semicolon ; B 39 -145 206 528 ;
C 60 ; WX 640 ; N less ; B 70 77 547 627 ;
C 61 ; WX 640 ; N equal ; B 86 171 554 533 ;
C 62 ; WX 640 ; N greater ; B 93 77 570 627 ;
C 63 ; WX 541 ; N question ; B 24 0 499 709 ;
C 64 ; WX 980 ; N at ; B 53 -162 927 712 ;
C 65 ; WX 790 ; N A ; B 30 0 760 705 ;
C 66 ; WX 722 ; N B ; B 90 0 673 700 ;
C 67 ; WX 738 ; N C ; B 59 -12 699 712 ;
C 68 ; WX 782 ; N D ; B 90 0 723 700 ;
C 69 ; WX 670 ; N E ; B 90 0 614 700 ;
C 70 ; WX 656 ; N F ; B 90 0 611 700 ;
C 71 ; WX 784 ; N G ; B 59 -12 714 712 ;
C 72 ; WX 760 ; N H ; B 90 0 670 700 ;
C 73 ; WX 317 ; N I ; B 97 0 220 700 ;
C 74 ; WX 559 ; N J ; B 21 -10 480 700 ;
C 75 ; WX 725 ; N K ; B 90 0 710 700 ;
C 76 ; WX 619 ; N L ; B 90 0 581 700 ;
C 77 ; WX 868 ; N M ; B 90 0 778 700 ;
C 78 ; WX 790 ; N N ; B 90 0 700 700 ;
C 79 ; WX 850 ; N O ; B 59 -12 791 712 ;
C 80 ; WX 668 ; N P ; B 90 0 632 700 ;
C 81 ; WX 850 ; N Q ; B 59 -21 800 712 ;
C 82 ; WX 723 ; N R ; B 90 0 684 700 ;
C 83 ; WX 640 ; N S ; B 43 -10 585 710 ;
C 84 ; WX 648 ; N T ; B 40 0 608 700 ;
C 85 ; WX 757 ; N U ; B 79 -11 678 700 ;
C 86 ; WX 750 ; N V ; B 30 -5 720 700 ;
C 87 ; WX 1116 ; N W ; B 36 -5 1080 702 ;
C 88 ; WX 729 ; N X ; B 37 0 692 700 ;
C 89 ; WX 716 ; N Y ; B 18 0 698 700 ;
C 90 ; WX 702 ; N Z ; B 65 0 638 700 ;
C 91 ; WX 454 ; N bracketleft ; B 88 -130 395 700 ;
C 92 ; WX 521 ; N backslash ; B -11 -128 546 798 ;
C 93 ; WX 454 ; N bracketright ; B 59 -130 367 700 ;
C 94 ; WX 500 ; N asciicircum ; B 56 493 444 701 ;
C 95 ; WX 600 ; N underscore ; B -2 -160 602 -66 ;
C 96 ; WX 500 ; N grave ; B 124 595 340 759 ;
C 97 ; WX 587 ; N a ; B 40 -11 519 536 ;
C 98 ; WX 670 ; N b ; B 76 -11 622 730 ;
C 99 ; WX 571 ; N c ; B 47 -12 536 539 ;
C 100 ; WX 670 ; N d ; B 49 -11 595 730 ;
C 101 ; WX 604 ; N e ; B 47 -12 558 539 ;
C 102 ; WX 376 ; N f ; B 36 0 363 736 ;
C 103 ; WX 670 ; N g ; B 49 -162 595 539 ;
C 104 ; WX 620 ; N h ; B 76 0 550 730 ;
C 105 ; WX 286 ; N i ; B 78 0 208 724 ;
C 106 ; WX 286 ; N j ; B -8 -163 208 724 ;
C 107 ; WX 582 ; N k ; B 76 0 570 730 ;
C 108 ; WX 286 ; N l ; B 83 0 204 730 ;
C 109 ; WX 950 ; N m ; B 76 0 879 539 ;
C 110 ; WX 620 ; N n ; B 76 0 550 539 ;
C 111 ; WX 657 ; N o ; B 47 -12 610 539 ;
C 112 ; WX 670 ; N p ; B 76 -160 622 539 ;
C 113 ; WX 670 ; N q ; B 49 -160 595 539 ;
C 114 ; WX 413 ; N r ; B 76 0 384 538 ;
C 115 ; WX 500 ; N s ; B 33 -10 453 537 ;
C 116 ; WX 410 ; N t ; B 34 -9 364 673 ;
C 117 ; WX 620 ; N u ; B 70 -11 544 528 ;
C 118 ; WX 595 ; N v ; B 26 -4 568 528 ;
C 119 ; WX 861 ; N w ; B 32 -4 829 530 ;
C 120 ; WX 580 ; N x ; B 30 0 550 528 ;
C 121 ; WX 596 ; N y ; B 26 -163 568 528 ;
C 122 ; WX 560 ; N z ; B 52 0 511 528 ;
C 123 ; WX 487 ; N braceleft ; B 52 -141 437 715 ;
C 124 ; WX 331 ; N bar ; B 117 -128 214 798 ;
C 125 ; WX 487 ; N braceright ; B 50 -141 435 715 ;
C 126 ; WX 495 ; N asciitilde ; B 59 229 436 384 ;
C 127 ; WX 365 ; N .notdef ; B 33 0 299 667 ;
C 128 ; WX 720 ; N Euro ; B 52 -12 676 712 ;
C 129 ; WX 594 ; N afii10052 ; B 90 0 561 922 ;
C 130 ; WX 269 ; N quotesinglbase ; B 34 -145 201 137 ;
C 131 ; WX 470 ; N afii10100 ; B 76 0 450 759 ;
C 132 ; WX 501 ; N quotedblbase ; B 34 -145 433 137 ;
C 133 ; WX 792 ; N ellipsis ; B 68 0 724 134 ;
C 134 ; WX 365 ; N .notdef ; B 33 0 299 667 ;
C 135 ; WX 365 ; N .notdef ; B 33 0 299 667 ;
C 136 ; WX 500 ; N circumflex ; B 78 595 422 741 ;
C 137 ; WX 365 ; N .notdef ; B 33 0 299 667 ;
C 138 ; WX 1132 ; N afii10058 ; B 5 -8 1093 700 ;
C 139 ; WX 354 ; N guilsinglleft ; B 44 41 302 488 ;
C 140 ; WX 1131 ; N afii10059 ; B 90 0 1092 700 ;
C 141 ; WX 725 ; N afii10061 ; B 90 0 710 922 ;
C 142 ; WX 874 ; N afii10060 ; B 38 0 801 700 ;
C 143 ; WX 751 ; N afii10145 ; B 89 -150 660 700 ;
C 144 ; WX 501 ; N quotedblbase ; B 34 -145 433 137 ;
C 145 ; WX 269 ; N quoteleft ; B 63 422 230 705 ;
C 146 ; WX 269 ; N quoteright ; B 39 417 206 700 ;
C 147 ; WX 501 ; N quotedblleft ; B 63 422 462 705 ;
C 148 ; WX 501 ; N quotedblright ; B 39 417 438 700 ;
C 149 ; WX 365 ; N .notdef ; B 33 0 299 667 ;
C 150 ; WX 528 ; N endash ; B 56 249 472 364 ;
C 151 ; WX 898 ; N emdash ; B 56 249 842 364 ;
C 152 ; WX 500 ; N tilde ; B 61 585 439 740 ;
C 153 ; WX 690 ; N trademark ; B 26 392 651 700 ;
C 154 ; WX 908 ; N afii10106 ; B 1 -6 878 528 ;
C 155 ; WX 354 ; N guilsinglright ; B 53 41 310 488 ;
C 156 ; WX 911 ; N afii10107 ; B 75 0 881 528 ;
C 157 ; WX 593 ; N afii10109 ; B 76 0 585 759 ;
C 158 ; WX 620 ; N afii10108 ; B 3 0 550 730 ;
C 159 ; WX 623 ; N afii10193 ; B 76 -127 547 528 ;
C 160 ; WX 300 ; N uni00A0 ; B 52 -6 538 706 ;
C 161 ; WX 732 ; N afii10062 ; B 25 -11 706 909 ;
C 162 ; WX 581 ; N cent ; B 52 -6 538 706 ;
C 163 ; WX 644 ; N sterling ; B 63 0 593 710 ;
C 164 ; WX 365 ; N .notdef ; B 33 0 299 667 ;
C 165 ; WX 686 ; N yen ; B 19 0 667 700 ;
C 166 ; WX 365 ; N .notdef ; B 33 0 299 667 ;
C 167 ; WX 365 ; N .notdef ; B 33 0 299 667 ;
C 168 ; WX 500 ; N dieresis ; B 89 595 411 713 ;
C 169 ; WX 830 ; N copyright ; B 53 -12 777 712 ;
C 170 ; WX 736 ; N afii10053 ; B 59 -12 702 712 ;
C 171 ; WX 606 ; N guillemotleft ; B 44 41 553 488 ;
C 172 ; WX 354 ; N guilsinglleft ; B 44 41 302 488 ;
C 173 ; WX 408 ; N uni00AD ; B 56 247 352 366 ;
C 174 ; WX 830 ; N registered ; B 53 -12 777 712 ;
C 175 ; WX 317 ; N afii10056 ; B -2 0 320 876 ;
C 176 ; WX 365 ; N .notdef ; B 33 0 299 667 ;
C 177 ; WX 528 ; N endash ; B 56 249 472 364 ;
C 178 ; WX 317 ; N afii10055 ; B 97 0 220 700 ;
C 179 ; WX 286 ; N afii10103 ; B 78 0 208 724 ;
C 180 ; WX 500 ; N acute ; B 160 595 376 759 ;
C 181 ; WX 365 ; N .notdef ; B 33 0 299 667 ;
C 182 ; WX 365 ; N .notdef ; B 33 0 299 667 ;
C 183 ; WX 365 ; N .notdef ; B 33 0 299 667 ;
C 184 ; WX 500 ; N cedilla ; B 131 -165 312 10 ;
C 185 ; WX 501 ; N quotedblbase ; B 34 -145 433 137 ;
C 186 ; WX 574 ; N afii10101 ; B 47 -12 539 538 ;
C 187 ; WX 606 ; N guillemotright ; B 53 41 562 488 ;
C 188 ; WX 286 ; N afii10105 ; B -8 -163 208 724 ;
C 189 ; WX 640 ; N afii10054 ; B 43 -10 585 710 ;
C 190 ; WX 500 ; N afii10102 ; B 33 -10 453 537 ;
C 191 ; WX 286 ; N afii10104 ; B -17 0 305 713 ;
C 192 ; WX 790 ; N afii10017 ; B 30 0 760 705 ;
C 193 ; WX 710 ; N afii10018 ; B 90 0 661 700 ;
C 194 ; WX 722 ; N afii10019 ; B 90 0 673 700 ;
C 195 ; WX 594 ; N afii10020 ; B 90 0 561 700 ;
C 196 ; WX 762 ; N afii10021 ; B 10 -150 742 700 ;
C 197 ; WX 670 ; N afii10022 ; B 90 0 614 700 ;
C 198 ; WX 1086 ; N afii10024 ; B 15 0 1071 700 ;
C 199 ; WX 646 ; N afii10025 ; B 32 -12 592 712 ;
C 200 ; WX 771 ; N afii10026 ; B 90 0 680 700 ;
C 201 ; WX 771 ; N afii10027 ; B 90 0 680 909 ;
C 202 ; WX 725 ; N afii10028 ; B 90 0 710 700 ;
C 203 ; WX 765 ; N afii10029 ; B 5 -8 674 700 ;
C 204 ; WX 868 ; N afii10030 ; B 90 0 778 700 ;
C 205 ; WX 760 ; N afii10031 ; B 90 0 670 700 ;
C 206 ; WX 850 ; N afii10032 ; B 59 -12 791 712 ;
C 207 ; WX 751 ; N afii10033 ; B 90 0 661 700 ;
C 208 ; WX 668 ; N afii10034 ; B 90 0 632 700 ;
C 209 ; WX 738 ; N afii10035 ; B 59 -12 699 712 ;
C 210 ; WX 648 ; N afii10036 ; B 40 0 608 700 ;
C 211 ; WX 732 ; N afii10037 ; B 25 -11 706 700 ;
C 212 ; WX 917 ; N afii10038 ; B 47 -27 869 725 ;
C 213 ; WX 729 ; N afii10039 ; B 37 0 692 700 ;
C 214 ; WX 770 ; N afii10040 ; B 90 -150 750 700 ;
C 215 ; WX 714 ; N afii10041 ; B 71 0 624 700 ;
C 216 ; WX 1097 ; N afii10042 ; B 90 0 1007 700 ;
C 217 ; WX 1114 ; N afii10043 ; B 90 -150 1094 700 ;
C 218 ; WX 795 ; N afii10044 ; B 35 0 756 700 ;
C 219 ; WX 931 ; N afii10045 ; B 90 0 841 700 ;
C 220 ; WX 675 ; N afii10046 ; B 90 0 636 700 ;
C 221 ; WX 734 ; N afii10047 ; B 32 -12 675 712 ;
C 222 ; WX 1058 ; N afii10048 ; B 90 -12 999 712 ;
C 223 ; WX 722 ; N afii10049 ; B 36 0 632 700 ;
C 224 ; WX 587 ; N afii10065 ; B 40 -11 519 536 ;
C 225 ; WX 654 ; N afii10066 ; B 60 -12 607 725 ;
C 226 ; WX 590 ; N afii10067 ; B 76 0 545 528 ;
C 227 ; WX 470 ; N afii10068 ; B 76 0 450 528 ;
C 228 ; WX 640 ; N afii10069 ; B 15 -127 615 528 ;
C 229 ; WX 604 ; N afii10070 ; B 47 -12 558 539 ;
C 230 ; WX 875 ; N afii10072 ; B 9 0 866 528 ;
C 231 ; WX 518 ; N afii10073 ; B 25 -12 468 539 ;
C 232 ; WX 634 ; N afii10074 ; B 76 0 558 528 ;
C 233 ; WX 634 ; N afii10075 ; B 76 0 558 742 ;
C 234 ; WX 593 ; N afii10076 ; B 76 0 585 528 ;
C 235 ; WX 623 ; N afii10077 ; B 1 -6 547 528 ;
C 236 ; WX 723 ; N afii10078 ; B 76 0 647 528 ;
C 237 ; WX 627 ; N afii10079 ; B 76 0 551 528 ;
C 238 ; WX 657 ; N afii10080 ; B 47 -12 610 539 ;
C 239 ; WX 623 ; N afii10081 ; B 76 0 547 528 ;
C 240 ; WX 670 ; N afii10082 ; B 76 -160 622 539 ;
C 241 ; WX 566 ; N afii10083 ; B 47 -12 536 539 ;
C 242 ; WX 501 ; N afii10084 ; B 19 0 481 528 ;
C 243 ; WX 596 ; N afii10085 ; B 26 -163 568 528 ;
C 244 ; WX 889 ; N afii10086 ; B 49 -160 840 700 ;
C 245 ; WX 580 ; N afii10087 ; B 30 0 550 528 ;
C 246 ; WX 645 ; N afii10088 ; B 76 -127 620 528 ;
C 247 ; WX 594 ; N afii10089 ; B 60 0 518 528 ;
C 248 ; WX 904 ; N afii10090 ; B 76 0 828 528 ;
C 249 ; WX 928 ; N afii10091 ; B 76 -127 903 528 ;
C 250 ; WX 645 ; N afii10092 ; B 17 0 615 528 ;
C 251 ; WX 795 ; N afii10093 ; B 76 0 719 528 ;
C 252 ; WX 558 ; N afii10094 ; B 76 0 528 528 ;
C 253 ; WX 566 ; N afii10095 ; B 27 -12 519 538 ;
C 254 ; WX 857 ; N afii10096 ; B 76 -12 810 538 ;
C 255 ; WX 600 ; N afii10097 ; B 28 0 524 528 ;
EndCharMetrics
EndFontMetrics
