<svg width="21" height="21" viewBox="0 0 21 21" fill="none" xmlns="http://www.w3.org/2000/svg">
<circle opacity="0.2" cx="10.4035" cy="10.5965" r="9.78947" fill="white"/>
<path d="M10.4036 6.24561V14.9474" stroke="white"/>
<path d="M14.7544 10.5965L6.05264 10.5965" stroke="white"/>
</svg>
