<svg width="5" height="6" viewBox="0 0 5 6" fill="none" xmlns="http://www.w3.org/2000/svg">
<path d="M2.44446 0.888916V5.33336" stroke="#333342"/>
<path d="M4.66663 3.11108L0.222181 3.11108" stroke="#333342"/>
</svg>
